%YAML 1.1
%TAG !u! tag:unity3d.com,2011:
--- !u!114 &11400000
MonoBehaviour:
  m_ObjectHideFlags: 0
  m_PrefabParentObject: {fileID: 0}
  m_PrefabInternal: {fileID: 0}
  m_GameObject: {fileID: 0}
  m_Enabled: 1
  m_EditorHideFlags: 0
  m_Script: {fileID: 499468296, guid: 0f20771f34eefe549a7337a23c679743, type: 3}
  m_Name: MaterialBakeResult
  m_EditorClassIdentifier: 
  combinedMaterialInfo:
  - atlases:
    - {fileID: 0}
    texPropertyNames:
    - _MainTex
  materials:
  - {fileID: 2100000, guid: feccc9b89c26805468d1bdcb46344626, type: 2}
  - {fileID: 2100000, guid: d76898e20fbb4d345b4606f98f5307f4, type: 2}
  - {fileID: 2100000, guid: 4cc14f2d300d0c445b1ff0006e0737c8, type: 2}
  - {fileID: 2100000, guid: 5a6823c7766599549af1fd87503dc15d, type: 2}
  prefabUVRects:
  - serializedVersion: 2
    x: 0.5097656
    y: 0.5058594
    width: 0.25
    height: 0.25
  - serializedVersion: 2
    x: 0.001953125
    y: 0.001953125
    width: 0.75
    height: 0.5
  - serializedVersion: 2
    x: 0.25585938
    y: 0.5058594
    width: 0.25
    height: 0.25
  - serializedVersion: 2
    x: 0.001953125
    y: 0.5058594
    width: 0.25
    height: 0.25
  materialsAndUVRects:
  - material: {fileID: 2100000, guid: feccc9b89c26805468d1bdcb46344626, type: 2}
    atlasRect:
      serializedVersion: 2
      x: 0.5097656
      y: 0.5058594
      width: 0.25
      height: 0.25
    srcObjName: Cube1
    samplingRectMatAndUVTiling:
      serializedVersion: 2
      x: 0
      y: 0
      width: 1
      height: 1
    sourceMaterialTiling:
      serializedVersion: 2
      x: 0
      y: 0
      width: 1
      height: 1
    samplingEncapsulatinRect:
      serializedVersion: 2
      x: 0
      y: 0
      width: 1
      height: 1
  - material: {fileID: 2100000, guid: d76898e20fbb4d345b4606f98f5307f4, type: 2}
    atlasRect:
      serializedVersion: 2
      x: 0.001953125
      y: 0.001953125
      width: 0.75
      height: 0.5
    srcObjName: Cube2
    samplingRectMatAndUVTiling:
      serializedVersion: 2
      x: 0.5
      y: 0.5
      width: 3
      height: 2
    sourceMaterialTiling:
      serializedVersion: 2
      x: 0.5
      y: 0.5
      width: 3
      height: 2
    samplingEncapsulatinRect:
      serializedVersion: 2
      x: 0.5
      y: 0.5
      width: 3
      height: 2
  - material: {fileID: 2100000, guid: 4cc14f2d300d0c445b1ff0006e0737c8, type: 2}
    atlasRect:
      serializedVersion: 2
      x: 0.25585938
      y: 0.5058594
      width: 0.25
      height: 0.25
    srcObjName: Cube3
    samplingRectMatAndUVTiling:
      serializedVersion: 2
      x: 0
      y: 0
      width: 1
      height: 1
    sourceMaterialTiling:
      serializedVersion: 2
      x: 0
      y: 0
      width: 1
      height: 1
    samplingEncapsulatinRect:
      serializedVersion: 2
      x: 0
      y: 0
      width: 1
      height: 1
  - material: {fileID: 2100000, guid: 5a6823c7766599549af1fd87503dc15d, type: 2}
    atlasRect:
      serializedVersion: 2
      x: 0.001953125
      y: 0.5058594
      width: 0.25
      height: 0.25
    srcObjName: Cube4
    samplingRectMatAndUVTiling:
      serializedVersion: 2
      x: 0
      y: 0
      width: 1
      height: 1
    sourceMaterialTiling:
      serializedVersion: 2
      x: 0
      y: 0
      width: 1
      height: 1
    samplingEncapsulatinRect:
      serializedVersion: 2
      x: 0
      y: 0
      width: 1
      height: 1
  resultMaterial: {fileID: 2100000, guid: df793054201b60e4eb6ec26922905a23, type: 2}
  resultMaterials: []
  doMultiMaterial: 0
  fixOutOfBoundsUVs: 0
